…
1）How many unique locations are included in the dataset? Is every state represented? What state is observed the most?

``` r
state_count = 
  brfss_data %>% 
  distinct(locationdesc, .keep_all = TRUE) %>% 
  count(locationabbr) %>% 
  arrange(desc(n))
state_count
```

    ## # A tibble: 51 x 2
    ##    locationabbr     n
    ##    <chr>        <int>
    ##  1 FL              44
    ##  2 TX              20
    ##  3 NJ              19
    ##  4 NC              16
    ##  5 OK              15
    ##  6 SC              15
    ##  7 WA              15
    ##  8 MD              14
    ##  9 PA              14
    ## 10 CA              12
    ## # ... with 41 more rows
…
